<?xml version="1.0" encoding="UTF-8" standalone="no"?>
<svg width="233px" height="46px" viewBox="0 0 233 46" version="1.1" xmlns="http://www.w3.org/2000/svg" xmlns:xlink="http://www.w3.org/1999/xlink" xmlns:sketch="http://www.bohemiancoding.com/sketch/ns">
    <!-- Generator: Sketch 3.4.3 (16618) - http://www.bohemiancoding.com/sketch -->
    <title>LOGO</title>
    <desc>Created with Sketch.</desc>
    <defs>
        <path id="path-1" d="M0,0.215036145 L232.49794,0.215036145 L232.49794,46 L0,46 L0,0.215036145 Z"></path>
    </defs>
    <g id="Page-1" stroke="none" stroke-width="1" fill="none" fill-rule="evenodd" sketch:type="MSPage">
        <g id="Homepage---correcties-Timar-Copy" sketch:type="MSArtboardGroup" transform="translate(-250.000000, -26.000000)">
            <g id="LOGO" sketch:type="MSLayerGroup" transform="translate(250.000000, 26.000000)">
                <path d="M113.189791,15.3622819 C113.593103,15.4326675 114.211663,15.4404265 114.794163,15.4404265 C118.622575,15.4631494 120.955903,13.3421614 120.955903,9.17167952 C120.970327,5.44623373 118.867779,3.49151084 115.179167,3.49151084 C114.255489,3.49151084 113.604753,3.57353494 113.189791,3.6611012 L113.189791,15.3622819 Z M109.946653,1.33726988 C111.31747,1.11502892 113.049436,0.977583133 114.88126,0.977583133 C118.030089,0.977583133 120.152608,1.56505301 121.708715,2.82755904 C123.367453,4.14271566 124.385441,6.19387229 124.385441,9.06139036 C124.385441,12.1106916 123.325846,14.327559 121.737008,15.7441373 C120.037217,17.2405229 117.377134,17.9903783 114.122901,17.9903783 C112.295515,17.9903783 110.934129,17.8917277 109.946653,17.7642578 L109.946653,1.33726988 Z" id="Fill-1" fill="#052759" sketch:type="MSShapeGroup"></path>
                <mask id="mask-2" sketch:name="Clip 4" fill="white">
                    <use xlink:href="#path-1"></use>
                </mask>
                <g id="Clip-4"></g>
                <path d="M127.788295,5.73337349 L131.034762,5.73337349 L131.034762,17.8252771 L127.788295,17.8252771 L127.788295,5.73337349 Z M129.378243,3.94159036 C128.258733,3.94159036 127.522564,3.13853012 127.527002,2.12819277 C127.522564,1.10954217 128.280369,0.322554217 129.413748,0.322554217 C130.557112,0.322554217 131.284405,1.10178313 131.2955,2.12819277 C131.299938,3.13853012 130.564324,3.94159036 129.402652,3.94159036 L129.378243,3.94159036 Z" id="Fill-3" fill="#052759" sketch:type="MSShapeGroup" mask="url(#mask-2)"></path>
                <path d="M135.127795,9.39901928 C135.127795,7.97357349 135.083414,6.79032048 135.028493,5.73342892 L137.856114,5.73342892 L138.013112,7.51246506 L138.08634,7.51246506 C138.609481,6.61629639 139.899857,5.46130843 141.913643,5.46130843 C144.117712,5.46130843 146.223588,6.89340482 146.223588,10.6493325 L146.223588,17.8253325 L142.976567,17.8253325 L142.976567,11.0345133 C142.976567,9.34470602 142.360226,8.09051325 140.770833,8.09051325 C139.599731,8.09051325 138.816962,8.91407952 138.512952,9.78641687 C138.417533,10.0335976 138.374262,10.4015976 138.374262,10.7463205 L138.374262,17.8253325 L135.127795,17.8253325 L135.127795,9.39901928 Z" id="Fill-5" fill="#052759" sketch:type="MSShapeGroup" mask="url(#mask-2)"></path>
                <path d="M153.521647,10.9853542 L153.572131,10.9853542 C153.858388,10.5031855 154.194574,9.99441446 154.504685,9.55713735 L157.326759,5.73304096 L161.221743,5.73304096 L156.772552,10.6616916 L161.849733,17.8254988 L157.867652,17.8254988 L154.532424,12.5792819 L153.521647,13.7980048 L153.521647,17.8254988 L150.279619,17.8254988 L150.279619,0.214703614 L153.521647,0.214703614 L153.521647,10.9853542 Z" id="Fill-6" fill="#052759" sketch:type="MSShapeGroup" mask="url(#mask-2)"></path>
                <path d="M171.29461,10.4506458 C171.305705,9.38599518 170.84026,7.63300723 168.877512,7.63300723 C167.070653,7.63300723 166.323389,9.27515181 166.195239,10.4506458 L171.29461,10.4506458 Z M166.206889,12.697441 C166.296205,14.7247663 167.953834,15.6259229 169.859996,15.6259229 C171.233031,15.6259229 172.249355,15.4186458 173.198553,15.0778024 L173.665108,17.2968867 C172.572227,17.7546699 171.117086,18.0639229 169.395105,18.0639229 C165.420236,18.0639229 163.105215,15.6480916 163.105215,11.9265253 C163.105215,8.65886265 165.103467,5.43830843 169.071679,5.43830843 C173.002722,5.43830843 174.33637,8.62173012 174.33637,11.3601157 C174.33637,11.9514651 174.282003,12.4319711 174.220979,12.7201639 L166.206889,12.697441 Z" id="Fill-7" fill="#052759" sketch:type="MSShapeGroup" mask="url(#mask-2)"></path>
                <path d="M177.609798,0.215036145 L180.856819,0.215036145 L180.856819,17.8252771 L177.609798,17.8252771 L177.609798,0.215036145 Z" id="Fill-8" fill="#052759" sketch:type="MSShapeGroup" mask="url(#mask-2)"></path>
                <path d="M184.950407,0.215036145 L188.196874,0.215036145 L188.196874,17.8252771 L184.950407,17.8252771 L184.950407,0.215036145 Z" id="Fill-9" fill="#052759" sketch:type="MSShapeGroup" mask="url(#mask-2)"></path>
                <path d="M198.70007,11.9563422 C196.588091,11.9325108 194.661958,12.3930651 194.661958,14.1299807 C194.661958,15.2594747 195.40312,15.7948482 196.341222,15.7948482 C197.484587,15.7948482 198.338365,15.0521976 198.61963,14.1953783 C198.683427,13.987547 198.70007,13.7486795 198.70007,13.5364145 L198.70007,11.9563422 Z M201.853891,14.9086554 C201.853891,16.0215229 201.910477,17.0961494 202.04251,17.8254988 L199.11947,17.8254988 L198.906996,16.5158843 L198.830994,16.5158843 C198.08262,17.4730169 196.82442,18.0981735 195.292168,18.0981735 C192.834572,18.0981735 191.451551,16.3418602 191.451551,14.4747036 C191.451551,11.3982458 194.199287,9.86639036 198.611308,9.88135422 L198.611308,9.69292048 C198.611308,8.93807711 198.288437,7.72101687 196.216401,7.72822169 C195.018115,7.72822169 193.761025,8.12005301 192.941087,8.63048675 L192.311432,6.53665542 C193.208482,6.00072771 194.79621,5.46092048 196.782258,5.46092048 C200.702206,5.46092048 201.853891,7.88894458 201.853891,10.5901976 L201.853891,14.9086554 Z" id="Fill-10" fill="#052759" sketch:type="MSShapeGroup" mask="url(#mask-2)"></path>
                <path d="M205.89572,9.39901928 C205.89572,7.97357349 205.850785,6.79032048 205.795863,5.73342892 L208.624039,5.73342892 L208.780482,7.51246506 L208.853711,7.51246506 C209.376851,6.61629639 210.667227,5.46130843 212.679904,5.46130843 C214.885082,5.46130843 216.990958,6.89340482 216.990958,10.6493325 L216.990958,17.8253325 L213.743937,17.8253325 L213.743937,11.0345133 C213.743937,9.34470602 213.128151,8.09051325 211.537649,8.09051325 C210.367101,8.09051325 209.583777,8.91407952 209.280323,9.78641687 C209.185458,10.0335976 209.142187,10.4015976 209.142187,10.7463205 L209.142187,17.8253325 L205.89572,17.8253325 L205.89572,9.39901928 Z" id="Fill-11" fill="#052759" sketch:type="MSShapeGroup" mask="url(#mask-2)"></path>
                <path d="M229.106293,10.7953687 C229.106293,10.5598265 229.092424,10.2683084 229.04305,10.0288867 C228.786195,8.89440482 227.844764,7.96221205 226.528869,7.96221205 C224.620488,7.96221205 223.585857,9.64481446 223.585857,11.7990554 C223.585857,13.972694 224.66154,15.5078747 226.496693,15.5078747 C227.699416,15.5078747 228.729609,14.6837542 229.017531,13.4290072 C229.084657,13.1607663 229.106293,12.8625976 229.106293,12.5478024 L229.106293,10.7953687 Z M232.348876,0.214814458 L232.348876,14.3761639 C232.348876,15.6503084 232.393812,17.0075855 232.448733,17.8256096 L229.562307,17.8256096 L229.419733,15.9484771 L229.364812,15.9484771 C228.632526,17.3024289 227.170174,18.0982843 225.471493,18.0982843 C222.590059,18.0982843 220.295564,15.6381157 220.295564,11.9115614 C220.277257,7.85691084 222.815847,5.46103133 225.718916,5.46103133 C227.334383,5.46103133 228.515471,6.10392289 229.056919,6.98180241 L229.106293,6.98180241 L229.106293,0.214814458 L232.348876,0.214814458 Z" id="Fill-12" fill="#052759" sketch:type="MSShapeGroup" mask="url(#mask-2)"></path>
                <path d="M48.7962469,14.069294 C48.7962469,13.8736554 48.7834874,13.7035108 48.7313398,13.5466675 C48.521085,12.8788361 47.9585564,12.329053 47.1203112,12.329053 C46.0202183,12.329053 45.233566,13.2579205 45.233566,14.7238241 C45.233566,15.9663783 45.862666,16.9999928 47.1069969,16.9999928 C47.8137636,16.9999928 48.4561779,16.5555108 48.7047112,15.8233904 C48.7701731,15.6260892 48.7962469,15.4038482 48.7962469,15.2076554 L48.7962469,14.069294 Z M49.9362826,16.9878 C49.9362826,18.4398482 49.6478064,19.328812 49.0325755,19.8785952 C48.416235,20.4544265 47.5263969,20.6373181 46.726985,20.6373181 C45.9669612,20.6373181 45.1298255,20.4544265 44.6188898,20.1141373 L44.9068112,19.2379205 C45.3256564,19.4995108 45.9802755,19.7344988 46.7669279,19.7344988 C47.9452421,19.7344988 48.8090064,19.1193181 48.8090064,17.5237277 L48.8090064,16.8171012 L48.7834874,16.8171012 C48.430104,17.4056795 47.7483017,17.8767639 46.7669279,17.8767639 C45.1947326,17.8767639 44.0680112,16.5422096 44.0680112,14.7897759 C44.0680112,12.643294 45.4698945,11.4262337 46.9239255,11.4262337 C48.0234636,11.4262337 48.625935,12.0020651 48.9010969,12.5263542 L48.9271707,12.5263542 L48.9793183,11.5703301 L49.9878755,11.5703301 C49.9623564,12.0281133 49.9362826,12.5391012 49.9362826,13.3105711 L49.9362826,16.9878 Z" id="Fill-13" fill="#052759" sketch:type="MSShapeGroup" mask="url(#mask-2)"></path>
                <path d="M56.326696,14.1088096 C56.3394555,13.3888819 56.0254602,12.2510747 54.7295364,12.2510747 C53.5634269,12.2510747 53.0524912,13.3107373 52.9615102,14.1088096 L56.326696,14.1088096 Z M52.948196,14.9334843 C52.9742698,16.4902795 53.9695126,17.1309542 55.1217531,17.1309542 C55.9472388,17.1309542 56.4448602,16.987412 56.8770198,16.8039663 L57.0734055,17.628641 C56.6673198,17.8115325 55.9733126,18.0337735 54.9647555,18.0337735 C53.0131031,18.0337735 51.8475483,16.7391229 51.8475483,14.8414843 C51.8475483,12.9183518 52.9742698,11.4264 54.8205174,11.4264 C56.890334,11.4264 57.4401031,13.2320386 57.4401031,14.3970024 C57.4401031,14.6325446 57.4140293,14.8154361 57.3874007,14.9467855 L52.948196,14.9334843 Z" id="Fill-14" fill="#052759" sketch:type="MSShapeGroup" mask="url(#mask-2)"></path>
                <path d="M59.3258498,13.2845229 C59.3258498,12.6299928 59.3130902,12.0935108 59.2731474,11.5703301 L60.2817045,11.5703301 L60.3338521,12.5911976 L60.373795,12.5911976 C60.7266236,11.9893181 61.3163355,11.4262337 62.3642807,11.4262337 C63.2285998,11.4262337 63.8832188,11.9505229 64.1583807,12.6959446 L64.1850093,12.6959446 C64.3808402,12.3423542 64.6299283,12.0680169 64.891776,11.8712699 C65.2851021,11.5963783 65.6911879,11.4262337 66.2931045,11.4262337 C67.1313498,11.4262337 68.3756807,11.9765711 68.3756807,14.1734867 L68.3756807,17.902812 L67.249514,17.902812 L67.249514,14.3175831 C67.249514,13.1010771 66.804595,12.3689566 65.8742593,12.3689566 C65.2190855,12.3689566 64.7087045,12.852788 64.5128736,13.4147639 C64.4468569,13.5727157 64.4207831,13.7816554 64.4207831,13.9905952 L64.4207831,17.902812 L63.2935069,17.902812 L63.2935069,14.1086434 C63.2935069,13.1010771 62.8491426,12.3689566 61.972064,12.3689566 C61.2514283,12.3689566 60.7266236,12.944788 60.5435521,13.5206193 C60.478645,13.6896554 60.4520164,13.8864024 60.4520164,14.0825952 L60.4520164,17.902812 L59.3258498,17.902812 L59.3258498,13.2845229 Z" id="Fill-15" fill="#052759" sketch:type="MSShapeGroup" mask="url(#mask-2)"></path>
                <path d="M74.7275381,14.1088096 C74.7402976,13.3888819 74.4257476,12.2510747 73.1298238,12.2510747 C71.964269,12.2510747 71.4533333,13.3107373 71.3617976,14.1088096 L74.7275381,14.1088096 Z M71.3484833,14.9334843 C71.3745571,16.4902795 72.3703548,17.1309542 73.5225952,17.1309542 C74.348081,17.1309542 74.8451476,16.987412 75.2773071,16.8039663 L75.4742476,17.628641 C75.0681619,17.8115325 74.3736,18.0337735 73.3650429,18.0337735 C71.4133905,18.0337735 70.2489452,16.7391229 70.2489452,14.8414843 C70.2489452,12.9183518 71.3745571,11.4264 73.2213595,11.4264 C75.2906214,11.4264 75.8409452,13.2320386 75.8409452,14.3970024 C75.8409452,14.6325446 75.8148714,14.8154361 75.7882429,14.9467855 L71.3484833,14.9334843 Z" id="Fill-16" fill="#052759" sketch:type="MSShapeGroup" mask="url(#mask-2)"></path>
                <path d="M81.7471069,14.1088096 C81.7598664,13.3888819 81.4458712,12.2510747 80.1488379,12.2510747 C78.9838379,12.2510747 78.4729021,13.3107373 78.3813664,14.1088096 L81.7471069,14.1088096 Z M78.3680521,14.9334843 C78.394126,16.4902795 79.3893688,17.1309542 80.542164,17.1309542 C81.3665402,17.1309542 81.8652712,16.987412 82.2974307,16.8039663 L82.4938164,17.628641 C82.087176,17.8115325 81.3937236,18.0337735 80.3851664,18.0337735 C78.433514,18.0337735 77.2679593,16.7391229 77.2679593,14.8414843 C77.2679593,12.9183518 78.394126,11.4264 80.2409283,11.4264 C82.310745,11.4264 82.8599593,13.2320386 82.8599593,14.3970024 C82.8599593,14.6325446 82.8338855,14.8154361 82.8078117,14.9467855 L78.3680521,14.9334843 Z" id="Fill-17" fill="#052759" sketch:type="MSShapeGroup" mask="url(#mask-2)"></path>
                <path d="M84.7463162,13.2845229 C84.7463162,12.6299928 84.7335567,12.0935108 84.6936138,11.5703301 L85.7149305,11.5703301 L85.7809471,12.6172458 L85.807021,12.6172458 C86.121571,12.0153663 86.8549662,11.4262337 87.9023567,11.4262337 C88.77999,11.4262337 90.1424852,11.9505229 90.1424852,14.1219446 L90.1424852,17.902812 L88.9891352,17.902812 L88.9891352,14.2527398 C88.9891352,13.2318723 88.6102329,12.3689566 87.5228995,12.3689566 C86.7634305,12.3689566 86.1870329,12.9181855 85.9773329,13.5588602 C85.9246305,13.7035108 85.8985567,13.8997036 85.8985567,14.0958964 L85.8985567,17.902812 L84.7463162,17.902812 L84.7463162,13.2845229 Z" id="Fill-18" fill="#052759" sketch:type="MSShapeGroup" mask="url(#mask-2)"></path>
                <path d="M93.8608879,10.0527735 L93.8608879,11.5702193 L95.5118593,11.5702193 L95.5118593,12.4469904 L93.8608879,12.4469904 L93.8608879,15.8615205 C93.8608879,16.6468458 94.0839021,17.0918819 94.7257617,17.0918819 C95.0403117,17.0918819 95.2233831,17.0658337 95.3942498,17.0137373 L95.4458426,17.876653 C95.2233831,17.968653 94.869445,18.0473518 94.424526,18.0473518 C93.8875164,18.0473518 93.4553569,17.863906 93.180195,17.5496651 C92.8661998,17.1966289 92.735276,16.6468458 92.735276,15.9014241 L92.735276,12.4469904 L91.7527926,12.4469904 L91.7527926,11.5702193 L92.735276,11.5702193 L92.735276,10.4063639 L93.8608879,10.0527735 Z" id="Fill-19" fill="#052759" sketch:type="MSShapeGroup" mask="url(#mask-2)"></path>
                <path d="M101.287319,14.1088096 C101.300079,13.3888819 100.985529,12.2510747 99.68905,12.2510747 C98.52405,12.2510747 98.0131143,13.3107373 97.9210238,14.1088096 L101.287319,14.1088096 Z M97.9077095,14.9334843 C97.9343381,16.4902795 98.929581,17.1309542 100.082376,17.1309542 C100.906752,17.1309542 101.404374,16.987412 101.837088,16.8039663 L102.034029,17.628641 C101.627388,17.8115325 100.932826,18.0337735 99.9253786,18.0337735 C97.9731714,18.0337735 96.8081714,16.7391229 96.8081714,14.8414843 C96.8081714,12.9183518 97.9343381,11.4264 99.7811405,11.4264 C101.850402,11.4264 102.400171,13.2320386 102.400171,14.3970024 C102.400171,14.6325446 102.374098,14.8154361 102.348024,14.9467855 L97.9077095,14.9334843 Z" id="Fill-20" fill="#052759" sketch:type="MSShapeGroup" mask="url(#mask-2)"></path>
                <path d="M154.077408,25.7067398 L148.111498,27.7955831 L232.497441,25.7067398 L154.077408,25.7067398 Z" id="Fill-21" fill="#007A4D" sketch:type="MSShapeGroup" mask="url(#mask-2)"></path>
                <path d="M27.4866771,36.9041928 C24.3356295,41.4083133 19.5668962,45.8536867 15.3784438,45.9966747 C10.3145771,46.1701446 8.12437714,39.2086265 0.00210809524,41.1212289 C-0.14213,41.157253 7.20624619,30.7318795 14.63007,35.3462892 C18.8285081,37.9566506 21.9734533,39.5439277 27.4866771,36.9041928" id="Fill-22" fill="#006CB7" sketch:type="MSShapeGroup" mask="url(#mask-2)"></path>
                <path d="M52.6410798,27.4576217 C49.632606,31.5460795 45.079675,35.5813325 41.081506,35.7115735 C36.246756,35.8689711 34.1558583,29.5497904 26.4013964,31.2850434 C26.2638155,31.3182964 33.2798893,21.8550434 40.3669726,26.042706 C44.3756821,28.4125373 47.3786083,29.852947 52.6410798,27.4576217" id="Fill-23" fill="#006CB7" sketch:type="MSShapeGroup" mask="url(#mask-2)"></path>
                <path d="M98.3910736,26.6998964 C95.3825998,29.3961614 90.829114,32.0569566 86.830945,32.1428602 C81.996195,32.247053 79.9052974,28.0798964 72.1513902,29.2243542 C72.0138093,29.2459687 79.0298831,23.0054867 86.1164117,25.7677036 C90.1251212,27.330041 93.1286021,28.2805229 98.3910736,26.6998964" id="Fill-24" fill="#008296" sketch:type="MSShapeGroup" mask="url(#mask-2)"></path>
                <path d="M145.888235,25.725694 C142.879761,27.0258867 138.326275,28.3083446 134.328106,28.3499108 C129.493356,28.3997904 127.402458,26.3907542 119.648551,26.9427542 C119.51097,26.9532843 126.527044,23.944441 133.613573,25.2762241 C137.622837,26.0294048 140.625763,26.4877422 145.888235,25.725694" id="Fill-25" fill="#007A4D" sketch:type="MSShapeGroup" mask="url(#mask-2)"></path>
                <path d="M77.8356471,34.6915928 C74.8271733,38.2524361 70.2742424,41.7661711 66.2755186,41.8792313 C61.4407686,42.0166771 59.349871,36.5138578 51.5959638,38.0257614 C51.4583829,38.0534723 58.4744567,29.8128217 65.56154,33.4595687 C69.5702495,35.5234723 72.5731757,36.7787735 77.8356471,34.6915928" id="Fill-26" fill="#008296" sketch:type="MSShapeGroup" mask="url(#mask-2)"></path>
                <path d="M123.83484,31.0643542 C120.826366,33.0473422 116.273435,35.0037277 112.274711,35.0674627 C107.440516,35.1428361 105.349619,32.0791253 97.5951567,32.9209807 C97.4575757,32.937053 104.47365,28.3486916 111.560178,30.3793422 C115.569442,31.5276795 118.572369,32.2271012 123.83484,31.0643542" id="Fill-27" fill="#007A4D" sketch:type="MSShapeGroup" mask="url(#mask-2)"></path>
            </g>
        </g>
    </g>
</svg>