<?xml version="1.0" encoding="utf-8"?>
<!-- Generator: Adobe Illustrator 17.1.0, SVG Export Plug-In . SVG Version: 6.00 Build 0)  -->
<!DOCTYPE svg PUBLIC "-//W3C//DTD SVG 1.1//EN" "http://www.w3.org/Graphics/SVG/1.1/DTD/svg11.dtd">
<svg version="1.1" id="Laag_1" xmlns="http://www.w3.org/2000/svg" xmlns:xlink="http://www.w3.org/1999/xlink" x="0px" y="0px"
	 viewBox="7.772 7.332 101.039 23.118" enable-background="new 7.772 7.332 101.039 23.118" xml:space="preserve">
<g>
	<path fill="#FFFFFF" d="M7.772,8.27h2.465l7.98,11.912l7.98-11.911h2.465v21.885h-2.465V12.438l-7.98,11.735h-0.118l-7.98-11.618
		v17.603H7.772V8.27z"/>
	<path fill="#FFFFFF" d="M32.944,7.862h2.757v2.7h-2.757V7.862z M33.121,14.022h2.404v16.134h-2.404V14.022z"/>
	<path fill="#FFFFFF" d="M39.515,14.022h2.347v2.757c0.586-0.881,1.289-1.585,2.171-2.171c0.881-0.586,1.996-0.881,3.403-0.881
		c0.997,0,1.879,0.177,2.582,0.47c0.82,0.294,1.408,0.821,1.879,1.289c0.47,0.586,0.881,1.289,1.173,2.112
		c0.294,0.821,0.411,1.702,0.411,2.582v9.976h-2.404v-9.446c0-1.466-0.411-2.7-1.173-3.579c-0.82-0.881-1.879-1.289-3.287-1.289
		c-0.703,0-1.289,0.118-1.879,0.411c-0.586,0.177-1.116,0.586-1.585,0.997c-0.411,0.411-0.82,0.997-0.997,1.585
		c-0.177,0.586-0.411,1.289-0.411,2.112v9.269h-2.23L39.515,14.022L39.515,14.022z"/>
	<path fill="#FFFFFF" d="M62.574,30.45c-0.586,0-1.289-0.118-1.819-0.294c-0.586-0.177-1.116-0.411-1.466-0.821
		c-0.411-0.411-0.705-0.82-0.997-1.408c-0.177-0.586-0.294-1.289-0.294-2.112v-9.682h-2.288V14.02h2.288V9.151h2.404v4.87h5.046
		v2.112h-5.046v9.329c0,0.997,0.294,1.702,0.82,2.112c0.47,0.411,1.173,0.586,1.996,0.586c0.411,0,0.82,0,1.173-0.118
		c0.411-0.118,0.82-0.177,1.173-0.411v2.112c-0.411,0.177-0.881,0.411-1.289,0.47C63.689,30.333,63.162,30.45,62.574,30.45z"/>
	<path fill="#FFFFFF" d="M68.442,7.332h2.404v22.766h-2.404V7.332z"/>
	<path fill="#FFFFFF" d="M89.212,29.923h-2.7v-2.171h-0.06c-1.408,1.702-3.168,2.582-5.398,2.582c-4.576,0-7.569-3.873-7.569-8.274
		c0-4.459,2.874-8.332,7.569-8.332c2.112,0,4.87,0.705,6.278,2.582c1.408,1.819,1.408,2.757,1.585,3.696
		c0.294,1.702,0.177,2.582,0.177,4.693C89.212,26.577,89.212,29.923,89.212,29.923z M75.894,22.001c0,3.287,1.879,6.278,5.457,6.278
		c3.696,0,5.574-2.874,5.574-6.278c0-3.287-2.112-5.986-5.574-5.986C78.005,16.016,75.894,18.891,75.894,22.001z"/>
	<path fill="#FFFFFF" d="M101.065,30.45c-0.82,0-1.408-0.118-2.112-0.294c-0.586-0.177-1.173-0.411-1.702-0.821
		c-0.47-0.294-0.997-0.703-1.408-1.116c-0.411-0.411-0.82-0.881-1.116-1.289v3.168h-2.404V7.332h2.404v9.859
		c0.294-0.47,0.705-0.881,1.116-1.408c0.411-0.411,0.881-0.82,1.408-1.116c0.47-0.294,1.116-0.586,1.702-0.82
		c0.586-0.177,1.289-0.294,2.112-0.294c0.997,0,1.879,0.177,2.757,0.586c0.88,0.411,1.819,0.881,2.465,1.702
		c0.705,0.705,1.289,1.585,1.819,2.582c0.411,0.997,0.705,2.171,0.705,3.579v0.118c0,1.289-0.177,2.465-0.705,3.462
		c-0.411,0.997-0.997,1.879-1.702,2.582c-0.705,0.703-1.466,1.289-2.465,1.702C102.941,30.216,102.062,30.45,101.065,30.45z
		 M100.595,28.337c0.82,0,1.466-0.118,2.171-0.411c0.705-0.294,1.289-0.703,1.819-1.173c0.528-0.47,0.881-1.173,1.172-1.996
		c0.294-0.82,0.47-1.702,0.47-2.582v-0.118c0-0.997-0.177-1.819-0.47-2.582c-0.294-0.82-0.705-1.408-1.172-1.996
		c-0.47-0.47-1.114-0.997-1.819-1.289c-0.705-0.294-1.408-0.411-2.171-0.411c-0.82,0-1.466,0.118-2.171,0.47
		c-0.705,0.294-1.289,0.703-1.879,1.289c-0.586,0.586-0.997,1.173-1.289,1.996c-0.294,0.82-0.47,1.585-0.47,2.465v0.118
		c0,0.881,0.177,1.819,0.47,2.582c0.294,0.821,0.82,1.408,1.289,1.996c0.586,0.47,1.173,0.997,1.879,1.289
		C99.186,28.162,99.891,28.337,100.595,28.337z"/>
</g>
</svg>
