[  
   {  
      "instance":{  
         "checksum":"md5:6a9aeeef6833906c173a03188100b329",
         "created":"2015-12-18T13:36:40Z",
         "id":"f0cdc823-f80f-47ef-b40b-6a40bf19ed90",
         "last_modified":"2015-12-18T13:36:40Z",
         "metadata":{  
            "description":null,
            "document_category":"Aangifte",
            "origin":null,
            "trust_level":"Openbaar"
         },
         "mimetype":"image/jpeg",
         "name":"ed940647fa425a2192de32a493b31492 (2).jpg",
         "size":13257,
         "title":"ed940647fa425a2192de32a493b31492 (2)"
      },
      "reference":"f0cdc823-f80f-47ef-b40b-6a40bf19ed90",
      "type":"file"
   },
   {  
      "instance":{  
         "checksum":"md5:bcc3449158d3812bfd7b30583630c712",
         "created":"2015-12-21T10:55:23Z",
         "id":"296a1a42-3710-4824-a1a5-fe25a20998fb",
         "last_modified":"2015-12-21T10:55:23Z",
         "metadata":{  
            "description":null,
            "document_category":"Aangifte",
            "origin":null,
            "trust_level":"Openbaar"
         },
         "mimetype":"image/png",
         "name":"meeting-icon_512 (2).png",
         "size":8502,
         "title":"meeting-icon_512 (2)"
      },
      "reference":"296a1a42-3710-4824-a1a5-fe25a20998fb",
      "type":"file"
   }
]
