<?xml version="1.0" encoding="UTF-8" standalone="no"?>
<svg width="112px" height="124px" viewBox="0 0 112 124" version="1.1" xmlns="http://www.w3.org/2000/svg" xmlns:xlink="http://www.w3.org/1999/xlink">
    <!-- Generator: Sketch 3.6.1 (26313) - http://www.bohemiancoding.com/sketch -->
    <title>object toevoegen</title>
    <desc>Created with Sketch.</desc>
    <defs></defs>
    <g id="Page-1" stroke="none" stroke-width="1" fill="none" fill-rule="evenodd">
        <g id="object-mutation-relate" transform="translate(-8.000000, -2.000000)">
            <g id="object-toevoegen" transform="translate(8.000000, 2.000000)">
                <path d="M111.428571,89.7503307 C111.235118,92.2676125 110.171141,94.107137 108.236607,95.2689594 L59.1964286,122.571649 C58.2291618,123.346197 57.0684592,123.733466 55.7142857,123.733466 C54.3601123,123.733466 53.1994096,123.346197 52.2321429,122.571649 L3.19196429,95.2689594 C1.2574308,94.107137 0.193453348,92.2676125 0,89.7503307 L0,33.9831349 C0.193453348,31.4658531 1.2574308,29.6263286 3.19196429,28.4645062 L52.2321429,1.16181658 C53.1994096,0.38726832 54.3601123,0 55.7142857,0 C57.0684592,0 58.2291618,0.38726832 59.1964286,1.16181658 L108.236607,28.4645062 C110.171141,29.6263286 111.235118,31.4658531 111.428571,33.9831349 L111.428571,89.7503307 Z" id="-copy" fill="#72C4B9"></path>
                <g id="add-copy" transform="translate(27.000000, 33.000000)" fill="#FFFFFF">
                    <path d="M56.0651339,32.0672269 L32.0375319,32.0672269 L32.0375319,56.1176471 L24.0283313,56.1176471 L24.0283313,32.0672269 L0.000729349992,32.0672269 L0.000729349992,24.0504202 L24.0283313,24.0504202 L24.0283313,0 L32.0375319,0 L32.0375319,24.0504202 L56.0651339,24.0504202 L56.0651339,32.0672269 L56.0651339,32.0672269 Z" id="Shape"></path>
                </g>
            </g>
        </g>
    </g>
</svg>